{
  "current_page": 1,
  "data": [
    {
      "id": 1,
      "title": "MD",
      "firstname": "Elwyn",
      "lastname": "Reynolds",
      "practice_name": "Et harum ipsam aliquam est laboriosam ullam.",
      "provider_specialty": "Sit sint ut sunt et dignissimos magni quasi.",
      "contact_number": "+19735887538",
      "email": "hrau@gmail.com",
      "street": "Harmony Extensions",
      "unit_number": "5548",
      "city": "North Gennaro",
      "state": "Tennessee",
      "state_abbr": "SD",
      "country": "Israel",
      "zip_code": "90658",
      "latitude": "-27.708582",
      "longitude": "49.923413",
      "visit_type": "Online",
      "insurance_carrier": "MasterCard",
      "insurance_plan": "HYMKEPDS23N"
    },
    {
      "id": 2,
      "title": "MO",
      "firstname": "Adelbert",
      "lastname": "Aufderhar",
      "practice_name": "Accusantium suscipit sed voluptatem et est ea.",
      "provider_specialty": "Sed aut reiciendis aut occaecati ut et.",
      "contact_number": "(207) 474-4961",
      "email": "lcrist@gmail.com",
      "street": "Carroll Stream",
      "unit_number": "29414",
      "city": "North Herminia",
      "state": "Tennessee",
      "state_abbr": "TX",
      "country": "Guadeloupe",
      "zip_code": "52538",
      "latitude": "-65.656295",
      "longitude": "134.079825",
      "visit_type": "Online",
      "insurance_carrier": "Visa",
      "insurance_plan": "LRTOEE96"
    },
    {
      "id": 3,
      "title": "MO",
      "firstname": "Terrence",
      "lastname": "Klein",
      "practice_name": "Ut consequatur voluptatem aliquam ut sunt voluptas sint.",
      "provider_specialty": "Perspiciatis est quis sint ducimus voluptate doloribus eum.",
      "contact_number": "484-317-3535",
      "email": "aufderhar.scot@yahoo.com",
      "street": "Wilderman Brooks",
      "unit_number": "13878",
      "city": "Sipestown",
      "state": "Tennessee",
      "state_abbr": "AL",
      "country": "Taiwan",
      "zip_code": "64580-5625",
      "latitude": "-72.014695",
      "longitude": "-64.595076",
      "visit_type": "Online",
      "insurance_carrier": "MasterCard",
      "insurance_plan": "DGEBCS8Z"
    },
    {
      "id": 4,
      "title": "MO",
      "firstname": "Dena",
      "lastname": "Ziemann",
      "practice_name": "Praesentium quibusdam omnis illo et sed dolore veniam omnis.",
      "provider_specialty": "Et velit provident eum rem.",
      "contact_number": "469.491.2950",
      "email": "wolff.brielle@kihn.com",
      "street": "Elnora Trafficway",
      "unit_number": "565",
      "city": "Mitchelshire",
      "state": "New York",
      "state_abbr": "TX",
      "country": "Ireland",
      "zip_code": "48267-1086",
      "latitude": "-84.663771",
      "longitude": "123.490819",
      "visit_type": "Online",
      "insurance_carrier": "MasterCard",
      "insurance_plan": "LPZSPWLG2HQ"
    },
    {
      "id": 5,
      "title": "MD",
      "firstname": "Anderson",
      "lastname": "Kunde",
      "practice_name": "Voluptas nihil dolores qui facere fugiat et quo dolor.",
      "provider_specialty": "Ex sunt dignissimos repellat maxime dicta vel occaecati dolores.",
      "contact_number": "240.942.5572",
      "email": "misael27@yahoo.com",
      "street": "Okuneva Lane",
      "unit_number": "4910",
      "city": "Port Bret",
      "state": "Wisconsin",
      "state_abbr": "NY",
      "country": "Mexico",
      "zip_code": "11186-4874",
      "latitude": "-40.099474",
      "longitude": "110.995192",
      "visit_type": "Online",
      "insurance_carrier": "Visa",
      "insurance_plan": "RKFUHH6CMAX"
    },
    {
      "id": 6,
      "title": "MD",
      "firstname": "Johnpaul",
      "lastname": "O'Hara",
      "practice_name": "Consequatur fugit nihil cumque minus.",
      "provider_specialty": "Sed eaque molestias omnis repellat.",
      "contact_number": "+1-430-343-0530",
      "email": "michele33@hotmail.com",
      "street": "Durgan Squares",
      "unit_number": "2467",
      "city": "New Brentchester",
      "state": "Mississippi",
      "state_abbr": "CA",
      "country": "Albania",
      "zip_code": "76378",
      "latitude": "-14.832176",
      "longitude": "-64.260059",
      "visit_type": "Online",
      "insurance_carrier": "Visa",
      "insurance_plan": "WNUTEM2V"
    },
    {
      "id": 7,
      "title": "MD",
      "firstname": "Mittie",
      "lastname": "Veum",
      "practice_name": "Facilis ducimus officiis est nemo.",
      "provider_specialty": "Ullam dolorem ullam praesentium sed eum doloremque.",
      "contact_number": "410-567-0408",
      "email": "dmcclure@klein.com",
      "street": "Mueller Plains",
      "unit_number": "5411",
      "city": "East Eusebio",
      "state": "Idaho",
      "state_abbr": "MD",
      "country": "Japan",
      "zip_code": "27850-0764",
      "latitude": "33.070388",
      "longitude": "58.459738",
      "visit_type": "Online",
      "insurance_carrier": "Visa Retired",
      "insurance_plan": "ZHVEWN1MDOP"
    },
    {
      "id": 8,
      "title": "MO",
      "firstname": "Miller",
      "lastname": "Gleichner",
      "practice_name": "Ut tempora eum qui delectus.",
      "provider_specialty": "Facere quo sequi aut sit ea consequatur.",
      "contact_number": "+1.276.484.0170",
      "email": "taylor02@haley.com",
      "street": "Altenwerth Turnpike",
      "unit_number": "52901",
      "city": "North Hazleburgh",
      "state": "Virginia",
      "state_abbr": "NV",
      "country": "Estonia",
      "zip_code": "48527-1225",
      "latitude": "46.800362",
      "longitude": "-90.300952",
      "visit_type": "Online",
      "insurance_carrier": "MasterCard",
      "insurance_plan": "KVCQVJTZHY8"
    },
    {
      "id": 9,
      "title": "MO",
      "firstname": "Margarette",
      "lastname": "Parisian",
      "practice_name": "Id minima nemo et sed non.",
      "provider_specialty": "Et a minima a et eius.",
      "contact_number": "+1.910.894.3861",
      "email": "holson@gmail.com",
      "street": "Tyler Glen",
      "unit_number": "3633",
      "city": "Vivianneberg",
      "state": "Mississippi",
      "state_abbr": "MO",
      "country": "Saudi Arabia",
      "zip_code": "42696-5694",
      "latitude": "34.304254",
      "longitude": "7.611697",
      "visit_type": "Online",
      "insurance_carrier": "Visa",
      "insurance_plan": "ZAAGSO0U"
    },
    {
      "id": 10,
      "title": "MD",
      "firstname": "Oleta",
      "lastname": "Rohan",
      "practice_name": "Cumque maiores cum possimus et harum occaecati.",
      "provider_specialty": "Vel molestiae deleniti sit dolor ut maiores nam omnis.",
      "contact_number": "+12675624337",
      "email": "jannie.carroll@crooks.net",
      "street": "Addison Ports",
      "unit_number": "368",
      "city": "Evamouth",
      "state": "Rhode Island",
      "state_abbr": "SD",
      "country": "Somalia",
      "zip_code": "36118-0698",
      "latitude": "17.791045",
      "longitude": "-43.519311",
      "visit_type": "In Person",
      "insurance_carrier": "Visa",
      "insurance_plan": "ZEFBKVHN0SD"
    },
    {
      "id": 11,
      "title": "MO",
      "firstname": "Tatum",
      "lastname": "Jacobson",
      "practice_name": "Voluptas ut amet totam ullam.",
      "provider_specialty": "Quae maxime ut quidem ut saepe.",
      "contact_number": "442-463-6847",
      "email": "auer.rosella@yahoo.com",
      "street": "White Springs",
      "unit_number": "754",
      "city": "Port Eugenestad",
      "state": "Oregon",
      "state_abbr": "NE",
      "country": "Vietnam",
      "zip_code": "97048-2982",
      "latitude": "-21.511912",
      "longitude": "64.261411",
      "visit_type": "Online",
      "insurance_carrier": "MasterCard",
      "insurance_plan": "INCNIKPH"
    },
    {
      "id": 12,
      "title": "MO",
      "firstname": "Melvin",
      "lastname": "Feil",
      "practice_name": "Voluptas natus autem nihil adipisci nostrum dolores.",
      "provider_specialty": "Voluptas soluta et rem et rerum mollitia corrupti.",
      "contact_number": "765.517.8286",
      "email": "jerod.hirthe@gmail.com",
      "street": "Elinor Corner",
      "unit_number": "1039",
      "city": "Kossport",
      "state": "Maryland",
      "state_abbr": "AK",
      "country": "Tunisia",
      "zip_code": "56358",
      "latitude": "24.128965",
      "longitude": "17.275102",
      "visit_type": "Online",
      "insurance_carrier": "Visa",
      "insurance_plan": "KMNINDVU"
    },
    {
      "id": 13,
      "title": "MO",
      "firstname": "Colleen",
      "lastname": "Kihn",
      "practice_name": "In doloribus ut unde.",
      "provider_specialty": "Eum repellendus velit in facere.",
      "contact_number": "+1 (947) 812-7275",
      "email": "zboncak.remington@conroy.org",
      "street": "Bradtke Parks",
      "unit_number": "473",
      "city": "Emiliofort",
      "state": "Wyoming",
      "state_abbr": "CO",
      "country": "Romania",
      "zip_code": "66334-2214",
      "latitude": "50.957609",
      "longitude": "53.357636",
      "visit_type": "Online",
      "insurance_carrier": "Visa",
      "insurance_plan": "CNLNFIS8"
    },
    {
      "id": 14,
      "title": "MD",
      "firstname": "Salma",
      "lastname": "Murphy",
      "practice_name": "Sed consequatur vel nobis reiciendis officia eius nisi neque.",
      "provider_specialty": "Corrupti deleniti aut ullam cupiditate.",
      "contact_number": "281-909-3390",
      "email": "odie.mosciski@gmail.com",
      "street": "Rohan Ridges",
      "unit_number": "486",
      "city": "Kayachester",
      "state": "Texas",
      "state_abbr": "AL",
      "country": "Faroe Islands",
      "zip_code": "11671",
      "latitude": "-24.574638",
      "longitude": "101.133206",
      "visit_type": "Online",
      "insurance_carrier": "American Express",
      "insurance_plan": "RCLZQCXH"
    },
    {
      "id": 15,
      "title": "MD",
      "firstname": "Milan",
      "lastname": "Jast",
      "practice_name": "Nulla reiciendis quia accusamus.",
      "provider_specialty": "Ab eveniet totam soluta sapiente id in.",
      "contact_number": "+18702256316",
      "email": "raegan.dibbert@yahoo.com",
      "street": "Juliet Pines",
      "unit_number": "373",
      "city": "New Tre",
      "state": "Pennsylvania",
      "state_abbr": "AL",
      "country": "Aruba",
      "zip_code": "10956",
      "latitude": "-63.5076",
      "longitude": "-62.913357",
      "visit_type": "In Person",
      "insurance_carrier": "Discover Card",
      "insurance_plan": "YQSOFTRQ8F2"
    }
  ],
  "first_page_url": "https://api.mydrsappt.com/api/v1/doctors?page=1",
  "from": 1,
  "last_page": 4,
  "last_page_url": "https://api.mydrsappt.com/api/v1/doctors?page=4",
  "links": [
    {
      "url": null,
      "label": "&laquo; Previous",
      "active": false
    },
    {
      "url": "https://api.mydrsappt.com/api/v1/doctors?page=1",
      "label": "1",
      "active": true
    },
    {
      "url": "https://api.mydrsappt.com/api/v1/doctors?page=2",
      "label": "2",
      "active": false
    },
    {
      "url": "https://api.mydrsappt.com/api/v1/doctors?page=3",
      "label": "3",
      "active": false
    },
    {
      "url": "https://api.mydrsappt.com/api/v1/doctors?page=4",
      "label": "4",
      "active": false
    },
    {
      "url": "https://api.mydrsappt.com/api/v1/doctors?page=2",
      "label": "Next &raquo;",
      "active": false
    }
  ],
  "next_page_url": "https://api.mydrsappt.com/api/v1/doctors?page=2",
  "path": "https://api.mydrsappt.com/api/v1/doctors",
  "per_page": 15,
  "prev_page_url": null,
  "to": 15,
  "total": 59
}